{
    "file_format_version" : "1.1.0",
    "layer" : {
        "name": "VK_LAYER_LUNARG_device_simulation",
        "type": "GLOBAL",
        "library_path": ".\\VkLayer_device_simulation.dll",
        "api_version": "1.2.135",
        "implementation_version": "1.3.0",
        "description": "LunarG device simulation layer",
        "device_extensions": [
            {
                 "name": "VK_EXT_tooling_info",
                 "spec_version": "1",
                 "entrypoints": ["vkGetPhysicalDeviceToolPropertiesEXT"
                        ]
            }
        ]

    }
}
